Untitled
…
##    carat 
## 7302.731

fit_model <- function(samp_size, x_var) {
  diam_samp <- diamonds %>% sample_n(samp_size) # random sample
  mod_formula <- paste0('price ~ ', x_var)
  diam_samp_lm <- lm(mod_formula, data = diam_samp)
  slopes <- coef(diam_samp_lm)[2] # store the coefficient
  all_results <- list(my_samp = diam_samp, my_mods = diam_samp_lm, slope = slopes )
  return(all_results)
}
  fit_model(100, 'carat')

## $my_samp
## # A tibble: 100 x 10
##    carat cut       color clarity depth table price     x     y     z
##    <dbl> <ord>     <ord> <ord>   <dbl> <dbl> <int> <dbl> <dbl> <dbl>
##  1  2.5  Premium   I     SI2      59      60 18447  8.76  8.89  5.21
##  2  1.01 Very Good H     SI1      62.5    58  4052  6.37  6.42  4   
##  3  0.72 Ideal     F     SI1      61.7    59  2706  5.75  5.79  3.56
##  4  0.24 Ideal     G     VS1      61.8    56   442  3.99  4.04  2.48
##  5  1.64 Ideal     G     VVS2     61.8    56 17604  7.59  7.6   4.69
##  6  1.19 Ideal     G     VVS2     60.9    53  9403  6.88  6.92  4.2 
##  7  0.91 Ideal     G     VS2      62.3    57  4257  6.18  6.24  3.87
##  8  1.57 Ideal     I     SI1      61.9    55 11040  7.38  7.44  4.59
##  9  0.55 Ideal     H     VS1      62.3    56  1634  5.22  5.27  3.27
## 10  0.53 Premium   G     SI1      61.3    58  1363  5.21  5.16  3.18
## # ... with 90 more rows
## 
## $my_mods
## 
## Call:
## lm(formula = mod_formula, data = diam_samp)
## 
## Coefficients:
## (Intercept)        carat  
…
